<?xml version="1.0" encoding="utf-8"?>
<!-- Generator: Adobe Illustrator 22.1.0, SVG Export Plug-In . SVG Version: 6.00 Build 0)  -->
<svg version="1.1" id="Слой_1" xmlns="http://www.w3.org/2000/svg" xmlns:xlink="http://www.w3.org/1999/xlink" x="0px" y="0px"
	 width="15px" height="17px" viewBox="0 0 15 17" enable-background="new 0 0 15 17" xml:space="preserve">
<g>
	<g>
		<path fill="#BFBDC2" d="M15,4H0l0,2l2,0l0,11H13l0-11l2,0V4z M5,15H4V7H5V15z M8,15H7V7H8V15z M10,15V7H11l0,8.1L10,15z M14,1H9
			l0-1H6l0,1H1v2h13V1z"/>
	</g>
</g>
</svg>
