<?xml version="1.0" encoding="utf-8"?>
<!-- Generator: Adobe Illustrator 22.0.1, SVG Export Plug-In . SVG Version: 6.00 Build 0)  -->
<svg version="1.1" id="call" xmlns="http://www.w3.org/2000/svg" xmlns:xlink="http://www.w3.org/1999/xlink" x="0px" y="0px"
	 width="15px" height="15px" viewBox="0 0 15 15" enable-background="new 0 0 15 15" xml:space="preserve">
<path id="call_1_" fill="#191919" d="M8,13v-2c0-1.1,0.9-2,2-2h3c1.1,0,2,0.9,2,2v2c0,1.1-0.9,2-2,2C0,15,0,5.6,0,2c0-1.1,0.9-2,2-2
	h2c1.1,0,2,0.9,2,2v3c0,1.1-0.9,2-2,2H2C1.4,7,1,6.6,1,6c0-0.6,0.4-1,1-1h2c0-0.8,0-2,0-3L2,2C2,7,3,13,13,13l0-2.1
	c-1.3,0-2.2,0-3,0v2c0,0.6-0.4,1-1,1C8.4,14,8,13.6,8,13z"/>
</svg>
