<?xml version="1.0" encoding="utf-8"?>
<!-- Generator: Adobe Illustrator 22.1.0, SVG Export Plug-In . SVG Version: 6.00 Build 0)  -->
<svg version="1.1" id="Слой_1" xmlns="http://www.w3.org/2000/svg" xmlns:xlink="http://www.w3.org/1999/xlink" x="0px" y="0px"
	 width="131px" height="131px" viewBox="0 0 131 131" enable-background="new 0 0 131 131" xml:space="preserve">
<g>
	<g>
		<path fill="#FFFFFF" d="M65.5,0C29.3,0,0,29.3,0,65.5C0,101.7,29.3,131,65.5,131c36.2,0,65.5-29.3,65.5-65.5
			C131,29.3,101.7,0,65.5,0z M65.5,127C31.5,127,4,99.5,4,65.5C4,31.5,31.5,4,65.5,4c34,0,61.5,27.6,61.5,61.5
			C127,99.5,99.5,127,65.5,127z M89.6,63.4L53.1,42.3c-0.4-0.2-0.8-0.4-1.3-0.3c-1.3,0-2.3,1.1-2.3,2.4v42.1c0,0.4,0.1,0.8,0.3,1.1
			c0.6,1.1,2.1,1.6,3.2,0.9l36.5-21c0.4-0.2,0.7-0.5,1-0.9C91.2,65.5,90.8,64.1,89.6,63.4z"/>
	</g>
</g>
</svg>
