<?xml version="1.0" encoding="utf-8"?>
<!-- Generator: Adobe Illustrator 22.1.0, SVG Export Plug-In . SVG Version: 6.00 Build 0)  -->
<svg version="1.1" id="Слой_1" xmlns="http://www.w3.org/2000/svg" xmlns:xlink="http://www.w3.org/1999/xlink" x="0px" y="0px"
	 width="18px" height="18px" viewBox="0 0 18 18" enable-background="new 0 0 18 18" xml:space="preserve">
<path fill="#F7941E" d="M17.7,7.7C18,7.5,18.1,7.1,18,6.8c-0.1-0.3-0.4-0.6-0.7-0.6l-5.2-0.7c0,0,0,0,0,0L9.8,0.5C9.6,0.2,9.3,0,9,0
	C8.7,0,8.4,0.2,8.2,0.5L6,5.4c0,0,0,0,0,0L0.7,6.2C0.4,6.2,0.1,6.5,0,6.8c-0.1,0.3,0,0.7,0.2,0.9l3.8,3.8c0,0,0,0,0,0L3.1,17
	c0,0.3,0,0.5,0.2,0.7C3.6,18,4,18.1,4.4,17.9L9,15.3c0,0,0,0,0,0l4.6,2.6C13.8,18,13.9,18,14,18c0.3,0,0.5-0.1,0.7-0.3
	c0.2-0.2,0.2-0.5,0.2-0.7l-0.9-5.4c0,0,0,0,0,0L17.7,7.7z M13.1,11.7l0.9,5.4c0,0,0,0,0,0c0,0,0,0,0,0c0,0,0,0,0,0l-4.6-2.6
	c-0.1-0.1-0.3-0.1-0.4-0.1c-0.1,0-0.3,0-0.4,0.1L4,17.2c0,0,0,0,0,0c0,0,0,0,0,0c0,0,0,0,0,0l0.9-5.4c0.1-0.3,0-0.6-0.2-0.8L0.8,7.1
	c0,0,0,0,0,0c0,0,0,0,0,0L6,6.3c0.3,0,0.5-0.2,0.7-0.5L9,0.9c0,0,0,0,0,0c0,0,0,0,0,0l2.3,4.9c0.1,0.3,0.4,0.5,0.7,0.5L17.2,7
	c0,0,0,0,0,0c0,0,0,0,0,0l-3.8,3.8C13.2,11.1,13.1,11.4,13.1,11.7z"/>
</svg>
