<?xml version="1.0" encoding="utf-8"?>
<!-- Generator: Adobe Illustrator 22.0.1, SVG Export Plug-In . SVG Version: 6.00 Build 0)  -->
<svg version="1.1" id="Слой_1" xmlns="http://www.w3.org/2000/svg" xmlns:xlink="http://www.w3.org/1999/xlink" x="0px" y="0px"
	 width="8px" height="13px" viewBox="0 0 8 13" style="enable-background:new 0 0 8 13;" xml:space="preserve">
<style type="text/css">
	.st0{fill:#F69300;}
</style>
<title>Artboard 1</title>
<polygon class="st0" points="8,1.4 6.6,0 0.1,6.5 0.1,6.5 6.6,13 8,11.6 2.9,6.5 "/>
</svg>
