<svg xmlns="http://www.w3.org/2000/svg" width="17" height="17" viewBox="0 0 17 17">
    <path fill="#2C2634" fill-rule="evenodd" d="M1.5 5.375l12.75-4.5s3.125-1.5 2 2-4.625 13-4.625 13-.875 2.125-2 0-3.375-5.25-3.375-5.25L.875 7.375s-1.75-1 .625-2z"/>
</svg>
