<?xml version="1.0" encoding="UTF-8"?>
<svg width="18px" height="18px" viewBox="0 0 18 18" version="1.1" xmlns="http://www.w3.org/2000/svg" xmlns:xlink="http://www.w3.org/1999/xlink">
    <!-- Generator: Sketch 52.6 (67491) - http://www.bohemiancoding.com/sketch -->
    <title>excursion</title>
    <desc>Created with Sketch.</desc>
    <g id="Page-1" stroke="none" stroke-width="1" fill="none" fill-rule="evenodd">
        <g id="Трели-1280" transform="translate(-523.000000, -4612.000000)" fill="#FFFFFF" fill-rule="nonzero">
            <g id="excursion" transform="translate(523.000000, 4612.000000)">
                <path d="M7.68883846,7.24285385 L12.0451154,4.67993077 C12.3518077,4.49764615 12.7429615,4.55116154 12.9966923,4.8087 C13.2504923,5.06603077 13.3033846,5.46279231 13.1236615,5.78464615 L10.5965308,10.2027462 C10.5331154,10.3207154 10.4272615,10.4172231 10.3109538,10.4923385 L5.95488462,13.0552615 C5.63773846,13.2375462 5.24637692,13.1840308 4.99264615,12.9264923 C4.73884615,12.6691615 4.68595385,12.2724 4.86567692,11.9505462 L7.3926,7.53223846 C7.46688462,7.41447692 7.56207692,7.31796923 7.68883846,7.24285385 Z M8.67219231,9.6021 C8.76738462,9.65582308 8.88369231,9.67721538 9,9.67721538 C9.1692,9.67721538 9.32780769,9.62356154 9.45456923,9.52698462 C9.52864615,9.47333077 9.59199231,9.40908462 9.64495385,9.33396923 C9.74007692,9.2052 9.79303846,9.04437692 9.79303846,8.87289231 C9.79303846,8.75492308 9.77192308,8.63695385 9.71896154,8.54044615 C9.63443077,8.35823077 9.49700769,8.2188 9.31714615,8.14368462 C9.22195385,8.09003077 9.11630769,8.06856923 9,8.06856923 C8.55588462,8.06856923 8.20696154,8.42247692 8.20696154,8.87289231 C8.20696154,8.99086154 8.22807692,9.09803077 8.28103846,9.19453846 C8.35504615,9.37703077 8.49253846,9.51639231 8.67219231,9.6021 Z" id="Shape"></path>
                <path d="M9,16.1006538 C10.9665692,16.0898538 12.7536231,15.2857385 14.0434615,13.9773462 C15.3335077,12.6582923 16.137,10.8566308 16.137,8.86209231 C16.137,6.85668462 15.3335077,5.05502308 14.0434615,3.73603846 C12.7536231,2.42778462 10.9665692,1.62346154 9,1.62346154 C7.02276923,1.62346154 5.24637692,2.42778462 3.94587692,3.73603846 C2.65596923,5.05502308 1.863,6.85668462 1.863,8.86209231 C1.863,10.8566308 2.65596923,12.6582923 3.94587692,13.9773462 C5.24637692,15.2857385 7.02276923,16.0900615 9,16.1006538 Z M0.276923077,8.86209231 C0.276923077,3.97190769 4.17849231,0.0148846154 9,0.0148846154 C13.8108462,0.0148846154 17.7230769,3.97190769 17.7230769,8.86209231 C17.7230769,13.7414077 13.8108462,17.6985 9,17.7093 C4.17849231,17.6985 0.276923077,13.7414077 0.276923077,8.86209231 Z" id="Shape"></path>
            </g>
        </g>
    </g>
</svg>